 common/openpgpdefs.h |  10 +++
 g10/packet.h         |   4 ++
 g10/parse-packet.c   |  12 ++++
 g10/pkglue.c         | 116 +++++++++++++++++++++++++------
 g10/pkglue.h         |   2 +
 g10/sig-check.c      |   7 +-
 6 files changed, 129 insertions(+), 22 deletions(-)
