 src/const.iced                    |  4 ++
 src/ecc/ecdsa.iced                | 41 ++++++++++++++++++-
 src/openpgp/packet/signature.iced | 26 +++++++++++-
 3 files changed, 67 insertions(+), 4 deletions(-)
